// Jest Snapshot v1, https://goo.gl/fbAQLP

exports[`ChartLegendTooltip 1`] = `<DocumentFragment />`;

exports[`ChartLegendTooltip 2`] = `<DocumentFragment />`;

exports[`allows tooltip via container component 1`] = `
<DocumentFragment>
  <div
    class="pf-v5-c-chart"
    style="height: 100%; width: 100%; user-select: none; pointer-events: none; position: relative;"
  >
    <svg
      aria-describedby="victory-container-1-desc"
      height="275"
      role="img"
      style="width: 100%; height: 100%; pointer-events: all;"
      viewBox="0 0 450 275"
      width="450"
    >
      <desc
        id="victory-container-1-desc"
      >
        Average number of pets
      </desc>
      <g
        role="presentation"
      >
        <line
          role="presentation"
          shape-rendering="auto"
          style="stroke: var(--pf-v5-chart-axis--axis--stroke--Color, #d2d2d2); fill: var(--pf-v5-chart-axis--axis--Fill, transparent); stroke-width: 1; stroke-linecap: round; stroke-linejoin: round;"
          vector-effect="non-scaling-stroke"
          x1="50"
          x2="400"
          y1="200"
          y2="200"
        />
        <g
          role="presentation"
        >
          <line
            role="presentation"
            shape-rendering="auto"
            style="stroke: var(--pf-v5-chart-axis--tick--stroke--Color, #d2d2d2); fill: var(--pf-v5-chart-axis--tick--Fill, transparent); size: 5px; stroke-linecap: round; stroke-linejoin: round; stroke-width: 1;"
            vector-effect="non-scaling-stroke"
            x1="50"
            x2="50"
            y1="200"
            y2="205"
          />
          <text
            direction="inherit"
            dx="0"
            id="test"
            x="50"
            y="226.97"
          >
            <tspan
              dx="0"
              dy="0"
              style="font-family: "RedHatText",helvetica,arial,sans-serif; font-size: 14px; letter-spacing: normal; padding: 10px; stroke: var(--pf-v5-chart-global--label--stroke, transparent); fill: var(--pf-v5-chart-axis--tick-label--Fill, #4f5255); text-anchor: middle;"
              text-anchor="middle"
              x="50"
            >
              2015
            </tspan>
          </text>
        </g>
        <g
          role="presentation"
        >
          <line
            role="presentation"
            shape-rendering="auto"
            style="stroke: var(--pf-v5-chart-axis--tick--stroke--Color, #d2d2d2); fill: var(--pf-v5-chart-axis--tick--Fill, transparent); size: 5px; stroke-linecap: round; stroke-linejoin: round; stroke-width: 1;"
            vector-effect="non-scaling-stroke"
            x1="166.66666666666666"
            x2="166.66666666666666"
            y1="200"
            y2="205"
          />
          <text
            direction="inherit"
            dx="0"
            id="test"
            x="166.66666666666666"
            y="226.97"
          >
            <tspan
              dx="0"
              dy="0"
              style="font-family: "RedHatText",helvetica,arial,sans-serif; font-size: 14px; letter-spacing: normal; padding: 10px; stroke: var(--pf-v5-chart-global--label--stroke, transparent); fill: var(--pf-v5-chart-axis--tick-label--Fill, #4f5255); text-anchor: middle;"
              text-anchor="middle"
              x="166.66666666666666"
            >
              2016
            </tspan>
          </text>
        </g>
        <g
          role="presentation"
        >
          <line
            role="presentation"
            shape-rendering="auto"
            style="stroke: var(--pf-v5-chart-axis--tick--stroke--Color, #d2d2d2); fill: var(--pf-v5-chart-axis--tick--Fill, transparent); size: 5px; stroke-linecap: round; stroke-linejoin: round; stroke-width: 1;"
            vector-effect="non-scaling-stroke"
            x1="283.3333333333333"
            x2="283.3333333333333"
            y1="200"
            y2="205"
          />
          <text
            direction="inherit"
            dx="0"
            id="test"
            x="283.3333333333333"
            y="226.97"
          >
            <tspan
              dx="0"
              dy="0"
              style="font-family: "RedHatText",helvetica,arial,sans-serif; font-size: 14px; letter-spacing: normal; padding: 10px; stroke: var(--pf-v5-chart-global--label--stroke, transparent); fill: var(--pf-v5-chart-axis--tick-label--Fill, #4f5255); text-anchor: middle;"
              text-anchor="middle"
              x="283.3333333333333"
            >
              2017
            </tspan>
          </text>
        </g>
        <g
          role="presentation"
        >
          <line
            role="presentation"
            shape-rendering="auto"
            style="stroke: var(--pf-v5-chart-axis--tick--stroke--Color, #d2d2d2); fill: var(--pf-v5-chart-axis--tick--Fill, transparent); size: 5px; stroke-linecap: round; stroke-linejoin: round; stroke-width: 1;"
            vector-effect="non-scaling-stroke"
            x1="400"
            x2="400"
            y1="200"
            y2="205"
          />
          <text
            direction="inherit"
            dx="0"
            id="test"
            x="400"
            y="226.97"
          >
            <tspan
              dx="0"
              dy="0"
              style="font-family: "RedHatText",helvetica,arial,sans-serif; font-size: 14px; letter-spacing: normal; padding: 10px; stroke: var(--pf-v5-chart-global--label--stroke, transparent); fill: var(--pf-v5-chart-axis--tick-label--Fill, #4f5255); text-anchor: middle;"
              text-anchor="middle"
              x="400"
            >
              2018
            </tspan>
          </text>
        </g>
      </g>
      <g
        role="presentation"
      >
        <line
          role="presentation"
          shape-rendering="auto"
          style="stroke: var(--pf-v5-chart-axis--axis--stroke--Color, #d2d2d2); fill: var(--pf-v5-chart-axis--axis--Fill, transparent); stroke-width: 1; stroke-linecap: round; stroke-linejoin: round;"
          vector-effect="non-scaling-stroke"
          x1="50"
          x2="50"
          y1="50"
          y2="200"
        />
        <g
          role="presentation"
        >
          <line
            role="presentation"
            shape-rendering="auto"
            style="stroke: var(--pf-v5-chart-axis--grid--stroke--Color, #d2d2d2); fill: var(--pf-v5-chart-axis--grid--Fill, none); pointer-events: painted; stroke-linecap: round; stroke-linejoin: round;"
            vector-effect="non-scaling-stroke"
            x1="50"
            x2="400"
            y1="170"
            y2="170"
          />
          <line
            role="presentation"
            shape-rendering="auto"
            style="stroke: var(--pf-v5-chart-axis--tick--stroke--Color, #d2d2d2); fill: var(--pf-v5-chart-axis--tick--Fill, transparent); size: 5px; stroke-linecap: round; stroke-linejoin: round; stroke-width: 1;"
            vector-effect="non-scaling-stroke"
            x1="50"
            x2="45"
            y1="170"
            y2="170"
          />
          <text
            direction="inherit"
            dx="0"
            id="test2"
            x="35"
            y="174.97"
          >
            <tspan
              dx="0"
              dy="0"
              style="font-family: "RedHatText",helvetica,arial,sans-serif; font-size: 14px; letter-spacing: normal; padding: 10px; stroke: var(--pf-v5-chart-global--label--stroke, transparent); fill: var(--pf-v5-chart-axis--tick-label--Fill, #4f5255); text-anchor: end;"
              text-anchor="end"
              x="35"
            >
              2
            </tspan>
          </text>
        </g>
        <g
          role="presentation"
        >
          <line
            role="presentation"
            shape-rendering="auto"
            style="stroke: var(--pf-v5-chart-axis--grid--stroke--Color, #d2d2d2); fill: var(--pf-v5-chart-axis--grid--Fill, none); pointer-events: painted; stroke-linecap: round; stroke-linejoin: round;"
            vector-effect="non-scaling-stroke"
            x1="50"
            x2="400"
            y1="125"
            y2="125"
          />
          <line
            role="presentation"
            shape-rendering="auto"
            style="stroke: var(--pf-v5-chart-axis--tick--stroke--Color, #d2d2d2); fill: var(--pf-v5-chart-axis--tick--Fill, transparent); size: 5px; stroke-linecap: round; stroke-linejoin: round; stroke-width: 1;"
            vector-effect="non-scaling-stroke"
            x1="50"
            x2="45"
            y1="125"
            y2="125"
          />
          <text
            direction="inherit"
            dx="0"
            id="test2"
            x="35"
            y="129.97"
          >
            <tspan
              dx="0"
              dy="0"
              style="font-family: "RedHatText",helvetica,arial,sans-serif; font-size: 14px; letter-spacing: normal; padding: 10px; stroke: var(--pf-v5-chart-global--label--stroke, transparent); fill: var(--pf-v5-chart-axis--tick-label--Fill, #4f5255); text-anchor: end;"
              text-anchor="end"
              x="35"
            >
              5
            </tspan>
          </text>
        </g>
        <g
          role="presentation"
        >
          <line
            role="presentation"
            shape-rendering="auto"
            style="stroke: var(--pf-v5-chart-axis--grid--stroke--Color, #d2d2d2); fill: var(--pf-v5-chart-axis--grid--Fill, none); pointer-events: painted; stroke-linecap: round; stroke-linejoin: round;"
            vector-effect="non-scaling-stroke"
            x1="50"
            x2="400"
            y1="80"
            y2="80"
          />
          <line
            role="presentation"
            shape-rendering="auto"
            style="stroke: var(--pf-v5-chart-axis--tick--stroke--Color, #d2d2d2); fill: var(--pf-v5-chart-axis--tick--Fill, transparent); size: 5px; stroke-linecap: round; stroke-linejoin: round; stroke-width: 1;"
            vector-effect="non-scaling-stroke"
            x1="50"
            x2="45"
            y1="80"
            y2="80"
          />
          <text
            direction="inherit"
            dx="0"
            id="test2"
            x="35"
            y="84.97"
          >
            <tspan
              dx="0"
              dy="0"
              style="font-family: "RedHatText",helvetica,arial,sans-serif; font-size: 14px; letter-spacing: normal; padding: 10px; stroke: var(--pf-v5-chart-global--label--stroke, transparent); fill: var(--pf-v5-chart-axis--tick-label--Fill, #4f5255); text-anchor: end;"
              text-anchor="end"
              x="35"
            >
              8
            </tspan>
          </text>
        </g>
      </g>
      <g>
        <g
          clip-path="url(#victory-clip-2)"
          style="height: 100%; width: 100%; user-select: none;"
        >
          <defs>
            <clippath
              id="victory-clip-2"
            >
              <rect
                height="150"
                vector-effect="non-scaling-stroke"
                width="350"
                x="50"
                y="50"
              />
            </clippath>
          </defs>
          <path
            d="M50,185L166.66666666666666,170L283.3333333333333,125L400,155"
            role="presentation"
            shape-rendering="auto"
            style="fill: none; stroke: var(--pf-v5-chart-theme--green--ColorScale--100, #4cb140); pointer-events: stroke; width: 11px; opacity: 1; stroke-width: 2;"
          />
        </g>
        <g
          clip-path="url(#victory-clip-3)"
          style="height: 100%; width: 100%; user-select: none;"
        >
          <defs>
            <clippath
              id="victory-clip-3"
            >
              <rect
                height="150"
                vector-effect="non-scaling-stroke"
                width="350"
                x="50"
                y="50"
              />
            </clippath>
          </defs>
          <path
            d="M50,170L166.66666666666666,185L283.3333333333333,95L400,140"
            role="presentation"
            shape-rendering="auto"
            style="fill: none; stroke: var(--pf-v5-chart-theme--green--ColorScale--200, #bde2b9); pointer-events: stroke; stroke-dasharray: 3,3; width: 11px; opacity: 1; stroke-width: 2;"
          />
        </g>
        <g
          clip-path="url(#victory-clip-4)"
          style="height: 100%; width: 100%; user-select: none;"
        >
          <defs>
            <clippath
              id="victory-clip-4"
            >
              <rect
                height="150"
                vector-effect="non-scaling-stroke"
                width="350"
                x="50"
                y="50"
              />
            </clippath>
          </defs>
          <path
            d="M50,155L166.66666666666666,140L283.3333333333333,65L400,125"
            role="presentation"
            shape-rendering="auto"
            style="fill: none; stroke: var(--pf-v5-chart-theme--green--ColorScale--300, #23511e); pointer-events: stroke; width: 11px; opacity: 1; stroke-width: 2;"
          />
        </g>
        <g
          clip-path="url(#victory-clip-5)"
          style="height: 100%; width: 100%; user-select: none;"
        >
          <defs>
            <clippath
              id="victory-clip-5"
            >
              <rect
                height="150"
                vector-effect="non-scaling-stroke"
                width="350"
                x="50"
                y="50"
              />
            </clippath>
          </defs>
          <path
            d="M50,155ZM283.3333333333333,80L400,95"
            role="presentation"
            shape-rendering="auto"
            style="fill: none; stroke: var(--pf-v5-chart-theme--green--ColorScale--400, #7cc674); pointer-events: stroke; width: 11px; opacity: 1; stroke-width: 2;"
          />
        </g>
      </g>
      <g>
        <rect
          height="14"
          role="presentation"
          shape-rendering="auto"
          style="fill: none;"
          vector-effect="non-scaling-stroke"
          width="158.4"
          x="146"
          y="232"
        />
        <path
          d="M 155.128, 250.872
      h9.744000000000028
      v-9.744000000000028
      h-9.744000000000028
      z"
          role="presentation"
          shape-rendering="auto"
          style="fill: var(--pf-v5-chart-theme--green--ColorScale--100, #4cb140);"
        />
        <path
          d="M 193.44, 248.156
      h3.695999999999998
      v-4.312
      h-3.695999999999998
      z
      M 198.368, 248.156
      h3.695999999999998
      v-4.312
      h-3.695999999999998
      z
      M 203.296, 248.156
      h3.695999999999998
      v-4.312
      h-3.695999999999998
      z"
          role="presentation"
          shape-rendering="auto"
          style="fill: var(--pf-v5-chart-theme--green--ColorScale--200, #bde2b9);"
        />
        <path
          d="M 234.32799999999997, 250.872
      h9.744000000000028
      v-9.744000000000028
      h-9.744000000000028
      z"
          role="presentation"
          shape-rendering="auto"
          style="fill: var(--pf-v5-chart-theme--green--ColorScale--300, #23511e);"
        />
        <path
          d="M 273.928, 250.872
      h9.744000000000028
      v-9.744000000000028
      h-9.744000000000028
      z"
          role="presentation"
          shape-rendering="auto"
          style="fill: var(--pf-v5-chart-theme--green--ColorScale--400, #7cc674);"
        />
        <text
          direction="inherit"
          dx="0"
          id="test"
          x="176.8"
          y="250.97"
        >
          <tspan
            dx="0"
            dy="0"
            style="font-family: "RedHatText",helvetica,arial,sans-serif; font-size: 14px; letter-spacing: normal; padding: 10px; stroke: var(--pf-v5-chart-global--label--stroke, transparent); fill: var(--pf-v5-chart-global--label--Fill, #151515);"
            text-anchor="start"
            x="176.8"
          >
            Cats
          </tspan>
        </text>
        <text
          direction="inherit"
          dx="0"
          id="test"
          x="216.4"
          y="250.97"
        >
          <tspan
            dx="0"
            dy="0"
            style="font-family: "RedHatText",helvetica,arial,sans-serif; font-size: 14px; letter-spacing: normal; padding: 10px; stroke: var(--pf-v5-chart-global--label--stroke, transparent); fill: var(--pf-v5-chart-global--label--Fill, #151515);"
            text-anchor="start"
            x="216.4"
          >
            Dogs
          </tspan>
        </text>
        <text
          direction="inherit"
          dx="0"
          id="test"
          x="256"
          y="250.97"
        >
          <tspan
            dx="0"
            dy="0"
            style="font-family: "RedHatText",helvetica,arial,sans-serif; font-size: 14px; letter-spacing: normal; padding: 10px; stroke: var(--pf-v5-chart-global--label--stroke, transparent); fill: var(--pf-v5-chart-global--label--Fill, #151515);"
            text-anchor="start"
            x="256"
          >
            Birds
          </tspan>
        </text>
        <text
          direction="inherit"
          dx="0"
          id="test"
          x="295.6"
          y="250.97"
        >
          <tspan
            dx="0"
            dy="0"
            style="font-family: "RedHatText",helvetica,arial,sans-serif; font-size: 14px; letter-spacing: normal; padding: 10px; stroke: var(--pf-v5-chart-global--label--stroke, transparent); fill: var(--pf-v5-chart-global--label--Fill, #151515);"
            text-anchor="start"
            x="295.6"
          >
            Mice
          </tspan>
        </text>
      </g>
    </svg>
    <div
      style="width: 100%; height: 100%; z-index: 99; position: absolute; top: 0px; left: 0px;"
    >
      <svg
        height="275"
        style="width: 100%; height: 100%; overflow: visible;"
        viewBox="0 0 450 275"
        width="450"
      />
    </div>
  </div>
</DocumentFragment>
`;
