// Jest Snapshot v1, https://goo.gl/fbAQLP

exports[`ChartBar 1`] = `
<DocumentFragment>
  <div
    class="pf-v5-c-chart"
    style="height: 100%; width: 100%; pointer-events: none; position: relative;"
  >
    <svg
      height="300"
      role="img"
      style="width: 100%; height: 100%; pointer-events: all;"
      viewBox="0 0 450 300"
      width="450"
    >
      <g
        role="presentation"
      >
        <path
          d="M 45, 250 
A 0 0 0 0 1, 45, 250 
L 45, 200 
A 0 0 0 0 1, 45, 200 
L 55, 200 
A 0 0 0 0 1, 55, 200 
L 55, 250 
A 0 0 0 0 1, 55, 250 
 z"
          index="0"
          role="presentation"
          shape-rendering="auto"
          style="fill: var(--pf-v5-chart-theme--blue--ColorScale--100, #06c); stroke: var(--pf-v5-chart-bar--data--stroke, none); padding: 8px; stroke-width: 0;"
        />
        <path
          d="M 161.66666666666666, 250 
A 0 0 0 0 1, 161.66666666666666, 250 
L 161.66666666666666, 150 
A 0 0 0 0 1, 161.66666666666666, 150 
L 171.66666666666666, 150 
A 0 0 0 0 1, 171.66666666666666, 150 
L 171.66666666666666, 250 
A 0 0 0 0 1, 171.66666666666666, 250 
 z"
          index="1"
          role="presentation"
          shape-rendering="auto"
          style="fill: var(--pf-v5-chart-theme--blue--ColorScale--100, #06c); stroke: var(--pf-v5-chart-bar--data--stroke, none); padding: 8px; stroke-width: 0;"
        />
        <path
          d="M 278.3333333333333, 250 
A 0 0 0 0 1, 278.3333333333333, 250 
L 278.3333333333333, 100 
A 0 0 0 0 1, 278.3333333333333, 100 
L 288.3333333333333, 100 
A 0 0 0 0 1, 288.3333333333333, 100 
L 288.3333333333333, 250 
A 0 0 0 0 1, 288.3333333333333, 250 
 z"
          index="2"
          role="presentation"
          shape-rendering="auto"
          style="fill: var(--pf-v5-chart-theme--blue--ColorScale--100, #06c); stroke: var(--pf-v5-chart-bar--data--stroke, none); padding: 8px; stroke-width: 0;"
        />
        <path
          d="M 395, 250 
A 0 0 0 0 1, 395, 250 
L 395, 50 
A 0 0 0 0 1, 395, 50 
L 405, 50 
A 0 0 0 0 1, 405, 50 
L 405, 250 
A 0 0 0 0 1, 405, 250 
 z"
          index="3"
          role="presentation"
          shape-rendering="auto"
          style="fill: var(--pf-v5-chart-theme--blue--ColorScale--100, #06c); stroke: var(--pf-v5-chart-bar--data--stroke, none); padding: 8px; stroke-width: 0;"
        />
      </g>
    </svg>
    <div
      style="width: 100%; height: 100%; z-index: 99; position: absolute; top: 0px; left: 0px;"
    >
      <svg
        height="300"
        style="width: 100%; height: 100%; overflow: visible;"
        viewBox="0 0 450 300"
        width="450"
      />
    </div>
  </div>
</DocumentFragment>
`;

exports[`ChartBar 2`] = `
<DocumentFragment>
  <div
    class="pf-v5-c-chart"
    style="height: 100%; width: 100%; pointer-events: none; position: relative;"
  >
    <svg
      height="300"
      role="img"
      style="width: 100%; height: 100%; pointer-events: all;"
      viewBox="0 0 450 300"
      width="450"
    >
      <g
        role="presentation"
      >
        <path
          d="M 45, 250 
A 0 0 0 0 1, 45, 250 
L 45, 200 
A 0 0 0 0 1, 45, 200 
L 55, 200 
A 0 0 0 0 1, 55, 200 
L 55, 250 
A 0 0 0 0 1, 55, 250 
 z"
          index="0"
          role="presentation"
          shape-rendering="auto"
          style="fill: var(--pf-v5-chart-theme--blue--ColorScale--100, #06c); stroke: var(--pf-v5-chart-bar--data--stroke, none); padding: 8px; stroke-width: 0;"
        />
        <path
          d="M 161.66666666666666, 250 
A 0 0 0 0 1, 161.66666666666666, 250 
L 161.66666666666666, 150 
A 0 0 0 0 1, 161.66666666666666, 150 
L 171.66666666666666, 150 
A 0 0 0 0 1, 171.66666666666666, 150 
L 171.66666666666666, 250 
A 0 0 0 0 1, 171.66666666666666, 250 
 z"
          index="1"
          role="presentation"
          shape-rendering="auto"
          style="fill: var(--pf-v5-chart-theme--blue--ColorScale--100, #06c); stroke: var(--pf-v5-chart-bar--data--stroke, none); padding: 8px; stroke-width: 0;"
        />
        <path
          d="M 278.3333333333333, 250 
A 0 0 0 0 1, 278.3333333333333, 250 
L 278.3333333333333, 100 
A 0 0 0 0 1, 278.3333333333333, 100 
L 288.3333333333333, 100 
A 0 0 0 0 1, 288.3333333333333, 100 
L 288.3333333333333, 250 
A 0 0 0 0 1, 288.3333333333333, 250 
 z"
          index="2"
          role="presentation"
          shape-rendering="auto"
          style="fill: var(--pf-v5-chart-theme--blue--ColorScale--100, #06c); stroke: var(--pf-v5-chart-bar--data--stroke, none); padding: 8px; stroke-width: 0;"
        />
        <path
          d="M 395, 250 
A 0 0 0 0 1, 395, 250 
L 395, 50 
A 0 0 0 0 1, 395, 50 
L 405, 50 
A 0 0 0 0 1, 405, 50 
L 405, 250 
A 0 0 0 0 1, 405, 250 
 z"
          index="3"
          role="presentation"
          shape-rendering="auto"
          style="fill: var(--pf-v5-chart-theme--blue--ColorScale--100, #06c); stroke: var(--pf-v5-chart-bar--data--stroke, none); padding: 8px; stroke-width: 0;"
        />
      </g>
    </svg>
    <div
      style="width: 100%; height: 100%; z-index: 99; position: absolute; top: 0px; left: 0px;"
    >
      <svg
        height="300"
        style="width: 100%; height: 100%; overflow: visible;"
        viewBox="0 0 450 300"
        width="450"
      />
    </div>
  </div>
</DocumentFragment>
`;

exports[`renders component data 1`] = `
<DocumentFragment>
  <div
    class="pf-v5-c-chart"
    style="height: 100%; width: 100%; user-select: none; pointer-events: none; position: relative;"
  >
    <svg
      height="200"
      role="img"
      style="width: 100%; height: 100%; pointer-events: all;"
      viewBox="0 0 300 200"
      width="300"
    >
      <g>
        <g
          role="presentation"
        >
          <path
            d="M 58.5, 150 
A 0 0 0 0 1, 58.5, 150 
L 58.5, 138.88888888888886 
A 0 0 0 0 1, 58.5, 138.88888888888886 
L 68.5, 138.88888888888886 
A 0 0 0 0 1, 68.5, 138.88888888888886 
L 68.5, 150 
A 0 0 0 0 1, 68.5, 150 
 z"
            index="0"
            role="presentation"
            shape-rendering="auto"
            style="fill: var(--pf-v5-chart-theme--blue--ColorScale--100, #06c); stroke: var(--pf-v5-chart-bar--data--stroke, none); width: 6px; padding: 8px; stroke-width: 0;"
          />
          <path
            d="M 106.83333333333333, 150 
A 0 0 0 0 1, 106.83333333333333, 150 
L 106.83333333333333, 127.77777777777779 
A 0 0 0 0 1, 106.83333333333333, 127.77777777777779 
L 116.83333333333333, 127.77777777777779 
A 0 0 0 0 1, 116.83333333333333, 127.77777777777779 
L 116.83333333333333, 150 
A 0 0 0 0 1, 116.83333333333333, 150 
 z"
            index="1"
            role="presentation"
            shape-rendering="auto"
            style="fill: var(--pf-v5-chart-theme--blue--ColorScale--100, #06c); stroke: var(--pf-v5-chart-bar--data--stroke, none); width: 6px; padding: 8px; stroke-width: 0;"
          />
          <path
            d="M 155.16666666666666, 150 
A 0 0 0 0 1, 155.16666666666666, 150 
L 155.16666666666666, 94.44444444444443 
A 0 0 0 0 1, 155.16666666666666, 94.44444444444443 
L 165.16666666666666, 94.44444444444443 
A 0 0 0 0 1, 165.16666666666666, 94.44444444444443 
L 165.16666666666666, 150 
A 0 0 0 0 1, 165.16666666666666, 150 
 z"
            index="2"
            role="presentation"
            shape-rendering="auto"
            style="fill: var(--pf-v5-chart-theme--blue--ColorScale--100, #06c); stroke: var(--pf-v5-chart-bar--data--stroke, none); width: 6px; padding: 8px; stroke-width: 0;"
          />
          <path
            d="M 203.5, 150 
A 0 0 0 0 1, 203.5, 150 
L 203.5, 116.66666666666669 
A 0 0 0 0 1, 203.5, 116.66666666666669 
L 213.5, 116.66666666666669 
A 0 0 0 0 1, 213.5, 116.66666666666669 
L 213.5, 150 
A 0 0 0 0 1, 213.5, 150 
 z"
            index="3"
            role="presentation"
            shape-rendering="auto"
            style="fill: var(--pf-v5-chart-theme--blue--ColorScale--100, #06c); stroke: var(--pf-v5-chart-bar--data--stroke, none); width: 6px; padding: 8px; stroke-width: 0;"
          />
        </g>
        <g
          role="presentation"
        >
          <path
            d="M 69.5, 150 
A 0 0 0 0 1, 69.5, 150 
L 69.5, 127.77777777777779 
A 0 0 0 0 1, 69.5, 127.77777777777779 
L 79.5, 127.77777777777779 
A 0 0 0 0 1, 79.5, 127.77777777777779 
L 79.5, 150 
A 0 0 0 0 1, 79.5, 150 
 z"
            index="0"
            role="presentation"
            shape-rendering="auto"
            style="fill: var(--pf-v5-chart-theme--blue--ColorScale--200, #8bc1f7); stroke: var(--pf-v5-chart-bar--data--stroke, none); width: 6px; padding: 8px; stroke-width: 0;"
          />
          <path
            d="M 117.83333333333331, 150 
A 0 0 0 0 1, 117.83333333333331, 150 
L 117.83333333333331, 138.88888888888886 
A 0 0 0 0 1, 117.83333333333331, 138.88888888888886 
L 127.83333333333331, 138.88888888888886 
A 0 0 0 0 1, 127.83333333333331, 138.88888888888886 
L 127.83333333333331, 150 
A 0 0 0 0 1, 127.83333333333331, 150 
 z"
            index="1"
            role="presentation"
            shape-rendering="auto"
            style="fill: var(--pf-v5-chart-theme--blue--ColorScale--200, #8bc1f7); stroke: var(--pf-v5-chart-bar--data--stroke, none); width: 6px; padding: 8px; stroke-width: 0;"
          />
          <path
            d="M 166.16666666666666, 150 
A 0 0 0 0 1, 166.16666666666666, 150 
L 166.16666666666666, 72.22222222222223 
A 0 0 0 0 1, 166.16666666666666, 72.22222222222223 
L 176.16666666666666, 72.22222222222223 
A 0 0 0 0 1, 176.16666666666666, 72.22222222222223 
L 176.16666666666666, 150 
A 0 0 0 0 1, 176.16666666666666, 150 
 z"
            index="2"
            role="presentation"
            shape-rendering="auto"
            style="fill: var(--pf-v5-chart-theme--blue--ColorScale--200, #8bc1f7); stroke: var(--pf-v5-chart-bar--data--stroke, none); width: 6px; padding: 8px; stroke-width: 0;"
          />
          <path
            d="M 214.49999999999997, 150 
A 0 0 0 0 1, 214.49999999999997, 150 
L 214.49999999999997, 105.55555555555557 
A 0 0 0 0 1, 214.49999999999997, 105.55555555555557 
L 224.49999999999997, 105.55555555555557 
A 0 0 0 0 1, 224.49999999999997, 105.55555555555557 
L 224.49999999999997, 150 
A 0 0 0 0 1, 224.49999999999997, 150 
 z"
            index="3"
            role="presentation"
            shape-rendering="auto"
            style="fill: var(--pf-v5-chart-theme--blue--ColorScale--200, #8bc1f7); stroke: var(--pf-v5-chart-bar--data--stroke, none); width: 6px; padding: 8px; stroke-width: 0;"
          />
        </g>
        <g
          role="presentation"
        >
          <path
            d="M 80.5, 150 
A 0 0 0 0 1, 80.5, 150 
L 80.5, 105.55555555555557 
A 0 0 0 0 1, 80.5, 105.55555555555557 
L 90.5, 105.55555555555557 
A 0 0 0 0 1, 90.5, 105.55555555555557 
L 90.5, 150 
A 0 0 0 0 1, 90.5, 150 
 z"
            index="0"
            role="presentation"
            shape-rendering="auto"
            style="fill: var(--pf-v5-chart-theme--blue--ColorScale--300, #002f5d); stroke: var(--pf-v5-chart-bar--data--stroke, none); width: 6px; padding: 8px; stroke-width: 0;"
          />
          <path
            d="M 128.83333333333331, 150 
A 0 0 0 0 1, 128.83333333333331, 150 
L 128.83333333333331, 105.55555555555557 
A 0 0 0 0 1, 128.83333333333331, 105.55555555555557 
L 138.83333333333331, 105.55555555555557 
A 0 0 0 0 1, 138.83333333333331, 105.55555555555557 
L 138.83333333333331, 150 
A 0 0 0 0 1, 138.83333333333331, 150 
 z"
            index="1"
            role="presentation"
            shape-rendering="auto"
            style="fill: var(--pf-v5-chart-theme--blue--ColorScale--300, #002f5d); stroke: var(--pf-v5-chart-bar--data--stroke, none); width: 6px; padding: 8px; stroke-width: 0;"
          />
          <path
            d="M 177.16666666666666, 150 
A 0 0 0 0 1, 177.16666666666666, 150 
L 177.16666666666666, 50 
A 0 0 0 0 1, 177.16666666666666, 50 
L 187.16666666666666, 50 
A 0 0 0 0 1, 187.16666666666666, 50 
L 187.16666666666666, 150 
A 0 0 0 0 1, 187.16666666666666, 150 
 z"
            index="2"
            role="presentation"
            shape-rendering="auto"
            style="fill: var(--pf-v5-chart-theme--blue--ColorScale--300, #002f5d); stroke: var(--pf-v5-chart-bar--data--stroke, none); width: 6px; padding: 8px; stroke-width: 0;"
          />
          <path
            d="M 225.5, 150 
A 0 0 0 0 1, 225.5, 150 
L 225.5, 72.22222222222223 
A 0 0 0 0 1, 225.5, 72.22222222222223 
L 235.5, 72.22222222222223 
A 0 0 0 0 1, 235.5, 72.22222222222223 
L 235.5, 150 
A 0 0 0 0 1, 235.5, 150 
 z"
            index="3"
            role="presentation"
            shape-rendering="auto"
            style="fill: var(--pf-v5-chart-theme--blue--ColorScale--300, #002f5d); stroke: var(--pf-v5-chart-bar--data--stroke, none); width: 6px; padding: 8px; stroke-width: 0;"
          />
        </g>
        <g
          role="presentation"
        >
          <path
            d="M 91.49999999999999, 150 
A 0 0 0 0 1, 91.49999999999999, 150 
L 91.49999999999999, 116.66666666666669 
A 0 0 0 0 1, 91.49999999999999, 116.66666666666669 
L 101.49999999999999, 116.66666666666669 
A 0 0 0 0 1, 101.49999999999999, 116.66666666666669 
L 101.49999999999999, 150 
A 0 0 0 0 1, 101.49999999999999, 150 
 z"
            index="0"
            role="presentation"
            shape-rendering="auto"
            style="fill: var(--pf-v5-chart-theme--blue--ColorScale--400, #519de9); stroke: var(--pf-v5-chart-bar--data--stroke, none); width: 6px; padding: 8px; stroke-width: 0;"
          />
          <path
            d="M 139.83333333333331, 150 
A 0 0 0 0 1, 139.83333333333331, 150 
L 139.83333333333331, 116.66666666666669 
A 0 0 0 0 1, 139.83333333333331, 116.66666666666669 
L 149.83333333333331, 116.66666666666669 
A 0 0 0 0 1, 149.83333333333331, 116.66666666666669 
L 149.83333333333331, 150 
A 0 0 0 0 1, 149.83333333333331, 150 
 z"
            index="1"
            role="presentation"
            shape-rendering="auto"
            style="fill: var(--pf-v5-chart-theme--blue--ColorScale--400, #519de9); stroke: var(--pf-v5-chart-bar--data--stroke, none); width: 6px; padding: 8px; stroke-width: 0;"
          />
          <path
            d="M 188.16666666666666, 150 
A 0 0 0 0 1, 188.16666666666666, 150 
L 188.16666666666666, 61.111111111111114 
A 0 0 0 0 1, 188.16666666666666, 61.111111111111114 
L 198.16666666666666, 61.111111111111114 
A 0 0 0 0 1, 198.16666666666666, 61.111111111111114 
L 198.16666666666666, 150 
A 0 0 0 0 1, 198.16666666666666, 150 
 z"
            index="2"
            role="presentation"
            shape-rendering="auto"
            style="fill: var(--pf-v5-chart-theme--blue--ColorScale--400, #519de9); stroke: var(--pf-v5-chart-bar--data--stroke, none); width: 6px; padding: 8px; stroke-width: 0;"
          />
          <path
            d="M 236.5, 150 
A 0 0 0 0 1, 236.5, 150 
L 236.5, 94.44444444444443 
A 0 0 0 0 1, 236.5, 94.44444444444443 
L 246.5, 94.44444444444443 
A 0 0 0 0 1, 246.5, 94.44444444444443 
L 246.5, 150 
A 0 0 0 0 1, 246.5, 150 
 z"
            index="3"
            role="presentation"
            shape-rendering="auto"
            style="fill: var(--pf-v5-chart-theme--blue--ColorScale--400, #519de9); stroke: var(--pf-v5-chart-bar--data--stroke, none); width: 6px; padding: 8px; stroke-width: 0;"
          />
        </g>
      </g>
      <g
        role="presentation"
      >
        <line
          role="presentation"
          shape-rendering="auto"
          style="stroke: var(--pf-v5-chart-axis--axis--stroke--Color, #d2d2d2); fill: var(--pf-v5-chart-axis--axis--Fill, transparent); stroke-width: 1; stroke-linecap: round; stroke-linejoin: round;"
          vector-effect="non-scaling-stroke"
          x1="50"
          x2="250"
          y1="150"
          y2="150"
        />
        <g
          role="presentation"
        >
          <line
            role="presentation"
            shape-rendering="auto"
            style="stroke: var(--pf-v5-chart-axis--tick--stroke--Color, #d2d2d2); fill: var(--pf-v5-chart-axis--tick--Fill, transparent); size: 5px; stroke-linecap: round; stroke-linejoin: round; stroke-width: 1;"
            vector-effect="non-scaling-stroke"
            x1="80"
            x2="80"
            y1="150"
            y2="155"
          />
          <text
            direction="inherit"
            dx="0"
            id="chart-axis-1-tickLabels-0"
            x="80"
            y="176.97"
          >
            <tspan
              dx="0"
              dy="0"
              style="font-family: "RedHatText",helvetica,arial,sans-serif; font-size: 14px; letter-spacing: normal; padding: 10px; stroke: var(--pf-v5-chart-global--label--stroke, transparent); fill: var(--pf-v5-chart-axis--tick-label--Fill, #4f5255);"
              text-anchor="middle"
              x="80"
            >
              Cats
            </tspan>
          </text>
        </g>
        <g
          role="presentation"
        >
          <line
            role="presentation"
            shape-rendering="auto"
            style="stroke: var(--pf-v5-chart-axis--tick--stroke--Color, #d2d2d2); fill: var(--pf-v5-chart-axis--tick--Fill, transparent); size: 5px; stroke-linecap: round; stroke-linejoin: round; stroke-width: 1;"
            vector-effect="non-scaling-stroke"
            x1="128.33333333333331"
            x2="128.33333333333331"
            y1="150"
            y2="155"
          />
          <text
            direction="inherit"
            dx="0"
            id="chart-axis-1-tickLabels-1"
            x="128.33333333333331"
            y="176.97"
          >
            <tspan
              dx="0"
              dy="0"
              style="font-family: "RedHatText",helvetica,arial,sans-serif; font-size: 14px; letter-spacing: normal; padding: 10px; stroke: var(--pf-v5-chart-global--label--stroke, transparent); fill: var(--pf-v5-chart-axis--tick-label--Fill, #4f5255);"
              text-anchor="middle"
              x="128.33333333333331"
            >
              Dogs
            </tspan>
          </text>
        </g>
        <g
          role="presentation"
        >
          <line
            role="presentation"
            shape-rendering="auto"
            style="stroke: var(--pf-v5-chart-axis--tick--stroke--Color, #d2d2d2); fill: var(--pf-v5-chart-axis--tick--Fill, transparent); size: 5px; stroke-linecap: round; stroke-linejoin: round; stroke-width: 1;"
            vector-effect="non-scaling-stroke"
            x1="176.66666666666666"
            x2="176.66666666666666"
            y1="150"
            y2="155"
          />
          <text
            direction="inherit"
            dx="0"
            id="chart-axis-1-tickLabels-2"
            x="176.66666666666666"
            y="176.97"
          >
            <tspan
              dx="0"
              dy="0"
              style="font-family: "RedHatText",helvetica,arial,sans-serif; font-size: 14px; letter-spacing: normal; padding: 10px; stroke: var(--pf-v5-chart-global--label--stroke, transparent); fill: var(--pf-v5-chart-axis--tick-label--Fill, #4f5255);"
              text-anchor="middle"
              x="176.66666666666666"
            >
              Birds
            </tspan>
          </text>
        </g>
        <g
          role="presentation"
        >
          <line
            role="presentation"
            shape-rendering="auto"
            style="stroke: var(--pf-v5-chart-axis--tick--stroke--Color, #d2d2d2); fill: var(--pf-v5-chart-axis--tick--Fill, transparent); size: 5px; stroke-linecap: round; stroke-linejoin: round; stroke-width: 1;"
            vector-effect="non-scaling-stroke"
            x1="224.99999999999997"
            x2="224.99999999999997"
            y1="150"
            y2="155"
          />
          <text
            direction="inherit"
            dx="0"
            id="chart-axis-1-tickLabels-3"
            x="224.99999999999997"
            y="176.97"
          >
            <tspan
              dx="0"
              dy="0"
              style="font-family: "RedHatText",helvetica,arial,sans-serif; font-size: 14px; letter-spacing: normal; padding: 10px; stroke: var(--pf-v5-chart-global--label--stroke, transparent); fill: var(--pf-v5-chart-axis--tick-label--Fill, #4f5255);"
              text-anchor="middle"
              x="224.99999999999997"
            >
              Mice
            </tspan>
          </text>
        </g>
      </g>
      <g
        role="presentation"
      >
        <line
          role="presentation"
          shape-rendering="auto"
          style="stroke: var(--pf-v5-chart-axis--axis--stroke--Color, #d2d2d2); fill: var(--pf-v5-chart-axis--axis--Fill, transparent); stroke-width: 1; stroke-linecap: round; stroke-linejoin: round;"
          vector-effect="non-scaling-stroke"
          x1="50"
          x2="50"
          y1="50"
          y2="150"
        />
        <g
          role="presentation"
        >
          <line
            role="presentation"
            shape-rendering="auto"
            style="stroke: var(--pf-v5-chart-axis--tick--stroke--Color, #d2d2d2); fill: var(--pf-v5-chart-axis--tick--Fill, transparent); size: 5px; stroke-linecap: round; stroke-linejoin: round; stroke-width: 1;"
            vector-effect="non-scaling-stroke"
            x1="50"
            x2="45"
            y1="127.77777777777779"
            y2="127.77777777777779"
          />
          <text
            direction="inherit"
            dx="0"
            id="chart-axis-2-tickLabels-0"
            x="35"
            y="132.7477777777778"
          >
            <tspan
              dx="0"
              dy="0"
              style="font-family: "RedHatText",helvetica,arial,sans-serif; font-size: 14px; letter-spacing: normal; padding: 10px; stroke: var(--pf-v5-chart-global--label--stroke, transparent); fill: var(--pf-v5-chart-axis--tick-label--Fill, #4f5255);"
              text-anchor="end"
              x="35"
            >
              2
            </tspan>
          </text>
        </g>
        <g
          role="presentation"
        >
          <line
            role="presentation"
            shape-rendering="auto"
            style="stroke: var(--pf-v5-chart-axis--tick--stroke--Color, #d2d2d2); fill: var(--pf-v5-chart-axis--tick--Fill, transparent); size: 5px; stroke-linecap: round; stroke-linejoin: round; stroke-width: 1;"
            vector-effect="non-scaling-stroke"
            x1="50"
            x2="45"
            y1="105.55555555555557"
            y2="105.55555555555557"
          />
          <text
            direction="inherit"
            dx="0"
            id="chart-axis-2-tickLabels-1"
            x="35"
            y="110.52555555555557"
          >
            <tspan
              dx="0"
              dy="0"
              style="font-family: "RedHatText",helvetica,arial,sans-serif; font-size: 14px; letter-spacing: normal; padding: 10px; stroke: var(--pf-v5-chart-global--label--stroke, transparent); fill: var(--pf-v5-chart-axis--tick-label--Fill, #4f5255);"
              text-anchor="end"
              x="35"
            >
              4
            </tspan>
          </text>
        </g>
        <g
          role="presentation"
        >
          <line
            role="presentation"
            shape-rendering="auto"
            style="stroke: var(--pf-v5-chart-axis--tick--stroke--Color, #d2d2d2); fill: var(--pf-v5-chart-axis--tick--Fill, transparent); size: 5px; stroke-linecap: round; stroke-linejoin: round; stroke-width: 1;"
            vector-effect="non-scaling-stroke"
            x1="50"
            x2="45"
            y1="83.33333333333334"
            y2="83.33333333333334"
          />
          <text
            direction="inherit"
            dx="0"
            id="chart-axis-2-tickLabels-2"
            x="35"
            y="88.30333333333334"
          >
            <tspan
              dx="0"
              dy="0"
              style="font-family: "RedHatText",helvetica,arial,sans-serif; font-size: 14px; letter-spacing: normal; padding: 10px; stroke: var(--pf-v5-chart-global--label--stroke, transparent); fill: var(--pf-v5-chart-axis--tick-label--Fill, #4f5255);"
              text-anchor="end"
              x="35"
            >
              6
            </tspan>
          </text>
        </g>
        <g
          role="presentation"
        >
          <line
            role="presentation"
            shape-rendering="auto"
            style="stroke: var(--pf-v5-chart-axis--tick--stroke--Color, #d2d2d2); fill: var(--pf-v5-chart-axis--tick--Fill, transparent); size: 5px; stroke-linecap: round; stroke-linejoin: round; stroke-width: 1;"
            vector-effect="non-scaling-stroke"
            x1="50"
            x2="45"
            y1="61.111111111111114"
            y2="61.111111111111114"
          />
          <text
            direction="inherit"
            dx="0"
            id="chart-axis-2-tickLabels-3"
            x="35"
            y="66.08111111111111"
          >
            <tspan
              dx="0"
              dy="0"
              style="font-family: "RedHatText",helvetica,arial,sans-serif; font-size: 14px; letter-spacing: normal; padding: 10px; stroke: var(--pf-v5-chart-global--label--stroke, transparent); fill: var(--pf-v5-chart-axis--tick-label--Fill, #4f5255);"
              text-anchor="end"
              x="35"
            >
              8
            </tspan>
          </text>
        </g>
      </g>
    </svg>
    <div
      style="width: 100%; height: 100%; z-index: 99; position: absolute; top: 0px; left: 0px;"
    >
      <svg
        height="200"
        style="width: 100%; height: 100%; overflow: visible;"
        viewBox="0 0 300 200"
        width="300"
      />
    </div>
  </div>
</DocumentFragment>
`;
