// Jest Snapshot v1, https://goo.gl/fbAQLP

exports[`ChartBulletComparativeMeasure 1`] = `
<DocumentFragment>
  <div
    class="pf-v5-c-chart"
    style="pointer-events: none; position: relative;"
  >
    <svg
      height="140"
      role="img"
      style="width: 100%; height: 100%; pointer-events: all;"
      viewBox="0 0 450 140"
      width="450"
    />
    <div
      style="width: 100%; height: 100%; z-index: 99; position: absolute; top: 0px; left: 0px;"
    >
      <svg
        height="140"
        style="width: 100%; height: 100%; overflow: visible;"
        viewBox="0 0 450 140"
        width="450"
      />
    </div>
  </div>
</DocumentFragment>
`;

exports[`ChartBulletComparativeMeasure 2`] = `
<DocumentFragment>
  <div
    class="pf-v5-c-chart"
    style="pointer-events: none; position: relative;"
  >
    <svg
      height="140"
      role="img"
      style="width: 100%; height: 100%; pointer-events: all;"
      viewBox="0 0 450 140"
      width="450"
    />
    <div
      style="width: 100%; height: 100%; z-index: 99; position: absolute; top: 0px; left: 0px;"
    >
      <svg
        height="140"
        style="width: 100%; height: 100%; overflow: visible;"
        viewBox="0 0 450 140"
        width="450"
      />
    </div>
  </div>
</DocumentFragment>
`;

exports[`renders component data 1`] = `
<DocumentFragment>
  <div
    class="pf-v5-c-chart"
    style="pointer-events: none; position: relative;"
  >
    <svg
      height="140"
      role="img"
      style="width: 100%; height: 100%; pointer-events: all;"
      viewBox="0 0 450 140"
      width="450"
    >
      <g
        role="presentation"
      >
        <path
          d="M 225, 104.8 
A 0 0 0 0 1, 225, 104.8 
L 225, 74.8 
A 0 0 0 0 1, 225, 74.8 
L 225, 74.8 
A 0 0 0 0 1, 225, 74.8 
L 225, 104.8 
A 0 0 0 0 1, 225, 104.8 
 z"
          index="0"
          role="presentation"
          shape-rendering="auto"
          style="fill: var(--pf-v5-chart-bullet--comparative-measure--Fill--Color, #4f5255); stroke: var(--pf-v5-chart-bullet--comparative-measure--stroke--Color, #4f5255); padding: 8px; stroke-width: 1;"
        />
      </g>
    </svg>
    <div
      style="width: 100%; height: 100%; z-index: 99; position: absolute; top: 0px; left: 0px;"
    >
      <svg
        height="140"
        style="width: 100%; height: 100%; overflow: visible;"
        viewBox="0 0 450 140"
        width="450"
      />
    </div>
  </div>
</DocumentFragment>
`;
