// Jest Snapshot v1, https://goo.gl/fbAQLP

exports[`ChartGroup 1`] = `
<DocumentFragment>
  <div
    class="pf-v5-c-chart"
    style="height: 100%; width: 100%; pointer-events: none; position: relative;"
  >
    <svg
      height="300"
      role="img"
      style="width: 100%; height: 100%; pointer-events: all;"
      viewBox="0 0 450 300"
      width="450"
    />
    <div
      style="width: 100%; height: 100%; z-index: 99; position: absolute; top: 0px; left: 0px;"
    >
      <svg
        height="300"
        style="width: 100%; height: 100%; overflow: visible;"
        viewBox="0 0 450 300"
        width="450"
      />
    </div>
  </div>
</DocumentFragment>
`;

exports[`ChartGroup 2`] = `
<DocumentFragment>
  <div
    class="pf-v5-c-chart"
    style="height: 100%; width: 100%; pointer-events: none; position: relative;"
  >
    <svg
      height="300"
      role="img"
      style="width: 100%; height: 100%; pointer-events: all;"
      viewBox="0 0 450 300"
      width="450"
    />
    <div
      style="width: 100%; height: 100%; z-index: 99; position: absolute; top: 0px; left: 0px;"
    >
      <svg
        height="300"
        style="width: 100%; height: 100%; overflow: visible;"
        viewBox="0 0 450 300"
        width="450"
      />
    </div>
  </div>
</DocumentFragment>
`;

exports[`renders container children 1`] = `
<DocumentFragment>
  <div
    class="pf-v5-c-chart"
    style="height: 100%; width: 100%; pointer-events: none; position: relative;"
  >
    <svg
      height="200"
      role="img"
      style="width: 100%; height: 100%; pointer-events: all;"
      viewBox="0 0 200 200"
      width="200"
    >
      <g
        clip-path="url(#victory-clip-4)"
        style="height: 100%; width: 100%;"
      >
        <defs>
          <clippath
            id="victory-clip-4"
          >
            <rect
              height="100"
              vector-effect="non-scaling-stroke"
              width="100"
              x="50"
              y="50"
            />
          </clippath>
        </defs>
        <path
          d="M50,121.42857142857142L75,92.85714285714286L100,58.57142857142856L125,50L125,150L100,150L75,150L50,150Z"
          role="presentation"
          shape-rendering="auto"
          style="fill: var(--pf-v5-chart-theme--blue--ColorScale--100, #06c); width: 6px; fill-opacity: 0.3; stroke-width: 2; stroke: var(--pf-v5-chart-theme--blue--ColorScale--100, #06c);"
        />
      </g>
      <g
        clip-path="url(#victory-clip-5)"
        style="height: 100%; width: 100%;"
      >
        <defs>
          <clippath
            id="victory-clip-5"
          >
            <rect
              height="100"
              vector-effect="non-scaling-stroke"
              width="100"
              x="50"
              y="50"
            />
          </clippath>
        </defs>
        <path
          d="M50,135.71428571428572L75,121.42857142857142L100,92.85714285714286L125,78.57142857142857L150,78.57142857142857L150,150L125,150L100,150L75,150L50,150Z"
          role="presentation"
          shape-rendering="auto"
          style="fill: var(--pf-v5-chart-theme--blue--ColorScale--200, #8bc1f7); width: 6px; fill-opacity: 0.3; stroke-width: 2; stroke: var(--pf-v5-chart-theme--blue--ColorScale--200, #8bc1f7);"
        />
      </g>
    </svg>
    <div
      style="width: 100%; height: 100%; z-index: 99; position: absolute; top: 0px; left: 0px;"
    >
      <svg
        height="200"
        style="width: 100%; height: 100%; overflow: visible;"
        viewBox="0 0 200 200"
        width="200"
      />
    </div>
  </div>
</DocumentFragment>
`;
